KAI - Take-home Exercise 4: Prototyping Modules for Visual Analytics Shiny Application
…
print(df_clustering)

# A tibble: 192,199 × 8
    Year Planning_Region Property_Type         Monthly_Rent_SGD Monthly_Rent_PSF
   <dbl> <chr>           <chr>                 <fct>            <fct>           
 1  2021 East Region     Non-landed Properties 0-2k             3-4             
 2  2021 North Region    Executive Condominium 2-3k             0-3             
 3  2021 West Region     Non-landed Properties 2-3k             0-3             
 4  2021 Central Region  Non-landed Properties 3-4k             3-4             
 5  2021 East Region     Non-landed Properties 2-3k             0-3             
 6  2021 Central Region  Non-landed Properties 4-5k             3-4             
 7  2021 Central Region  Non-landed Properties 3-4k             0-3             
 8  2021 Central Region  Non-landed Properties 3-4k             3-4             
 9  2021 East Region     Non-landed Properties 0-2k             0-3             
10  2021 Central Region  Non-landed Properties 3-4k             4+              
# ℹ 192,189 more rows
# ℹ 3 more variables: Floor_Area_SQFT_Avg <fct>, distance_to_mrt <fct>,
#   distance_to_school <fct>
…
